ASIC_FLOW/KOA_FRANCIS/integracion_fisica/simulacion_logica_behavioral/SINGLE/DVEfiles/dve_gui.log
Warning : License for product VCSRuntime_Net(725) will expire within 16 days, on: 10-nov-2016.
If you would like to temporarily disable this message, set 
 the VCS_LIC_EXPIRE_WARNING environment variable to the number of days
before expiration that you want this message to start (the minimum is 0).
Chronologic VCS simulator copyright 1991-2015
Contains Synopsys proprietary information.
Compiler version K-2015.09-SP2-3_Full64; Runtime version K-2015.09-SP2-3_Full64;  Oct 26 16:43 2016
VCD+ Writer K-2015.09-SP2-3_Full64 Copyright (c) 1991-2015 by Synopsys Inc.
The file '/home/local/ESTUDIANTES/jsequeira/Documents/Dise-o-ASIC-FPGA-FPU/ASIC_FLOW/KOA_FRANCIS/integracion_fisica/simulacion_logica_behavioral/SINGLE/inter.vpd' was opened successfully.
           V C S   S i m u l a t i o n   R e p o r t 
Time: 0 ps
CPU Time:      0.090 seconds;       Data structure size:   0.0Mb
Wed Oct 26 16:43:45 2016
Warning : License for product VCSRuntime_Net(725) will expire within 16 days, on: 10-nov-2016.
If you would like to temporarily disable this message, set 
 the VCS_LIC_EXPIRE_WARNING environment variable to the number of days
before expiration that you want this message to start (the minimum is 0).
Chronologic VCS simulator copyright 1991-2015
Contains Synopsys proprietary information.
Compiler version K-2015.09-SP2-3_Full64; Runtime version K-2015.09-SP2-3_Full64;  Oct 26 16:43 2016
VCD+ Writer K-2015.09-SP2-3_Full64 Copyright (c) 1991-2015 by Synopsys Inc.
The file '/home/local/ESTUDIANTES/jsequeira/Documents/Dise-o-ASIC-FPGA-FPU/ASIC_FLOW/KOA_FRANCIS/integracion_fisica/simulacion_logica_behavioral/SINGLE/inter.vpd' was opened successfully.
       1       1              0       1
       1       1              1       1
       1       4              1       4
       1       4   274877894660       4
       1       4              4       4
       2       6              4      12
       2       6   274877874188      12
       2       6             12      12
       3       8             12      24
       3       8   274877857816      24
       3       8             24      24
       4      10             24      40
       4      10   274877841448      40
       4      10             40      40
       5      12             40      60
       5      12   274877825084      60
       5      12             60      60
       6      14             60      84
       6      14   274877808724      84
       6      14             84      84
       7      16             84     112
       7      16   274877792368     112
       7      16            112     112
       8      18            112     144
       8      18   274877776016     144
       8      18            144     144
       9      20            144     180
       9      20   274877759668     180
       9      20            180     180
      10      22            180     220
      10      22   274877743324     220
      10      22            220     220
      11      24            220     264
      11      24   274877726984     264
      11      24            264     264
      12      26            264     312
      12      26   274877710648     312
      12      26            312     312
      13      28            312     364
      13      28   274877694316     364
      13      28            364     364
      14      30            364     420
      14      30   274877677988     420
      14      30            420     420
      15      32            420     480
      15      32   274877661664     480
      15      32            480     480
      16      34            480     544
      16      34   274877645344     544
      16      34            544     544
      17      36            544     612
      17      36   274877629028     612
      17      36            612     612
      18      38            612     684
      18      38   274877612716     684
      18      38            684     684
      19      40            684     760
      19      40   274877596408     760
      19      40            760     760
      20      42            760     840
      20      42   274877580104     840
      20      42            840     840
      21      44            840     924
      21      44   274877563804     924
      21      44            924     924
      22      46            924    1012
      22      46   274877547508    1012
      22      46           1012    1012
      23      48           1012    1104
      23      48   274877531216    1104
      23      48           1104    1104
      24      50           1104    1200
      24      50   274877514928    1200
      24      50           1200    1200
      25      52           1200    1300
      25      52   274877498644    1300
      25      52           1300    1300
      26      54           1300    1404
      26      54   274877482364    1404
      26      54           1404    1404
      27      56           1404    1512
      27      56   274877466088    1512
      27      56           1512    1512
      28      58           1512    1624
      28      58   274877449816    1624
      28      58           1624    1624
      29      60           1624    1740
      29      60   274877433548    1740
      29      60           1740    1740
      30      62           1740    1860
      30      62   274877417284    1860
      30      62           1860    1860
      31      64           1860    1984
      31      64   274877401024    1984
      31      64           1984    1984
      32      66           1984    2112
      32      66   274877384768    2112
      32      66           2112    2112
      33      68           2112    2244
      33      68   274877368516    2244
      33      68           2244    2244
      34      70           2244    2380
      34      70   274877352268    2380
      34      70           2380    2380
      35      72           2380    2520
      35      72   274877336024    2520
      35      72           2520    2520
      36      74           2520    2664
      36      74   274877319784    2664
      36      74           2664    2664
      37      76           2664    2812
      37      76   274877303548    2812
      37      76           2812    2812
      38      78           2812    2964
      38      78   274877287316    2964
      38      78           2964    2964
      39      80           2964    3120
      39      80   274877271088    3120
      39      80           3120    3120
      40      82           3120    3280
      40      82   274877254864    3280
      40      82           3280    3280
      41      84           3280    3444
      41      84   274877238644    3444
      41      84           3444    3444
      42      86           3444    3612
      42      86   274877222428    3612
      42      86           3612    3612
      43      88           3612    3784
      43      88   274877206216    3784
      43      88           3784    3784
      44      90           3784    3960
      44      90   274877190008    3960
      44      90           3960    3960
      45      92           3960    4140
      45      92   274877173804    4140
      45      92           4140    4140
      46      94           4140    4324
      46      94   274877157604    4324
      46      94           4324    4324
      47      96           4324    4512
      47      96   274877141408    4512
      47      96           4512    4512
      48      98           4512    4704
      48      98   274877125216    4704
      48      98           4704    4704
      49     100           4704    4900
      49     100   274877109028    4900
      49     100           4900    4900
      50     102           4900    5100
      50     102   274877092844    5100
      50     102           5100    5100
      51     104           5100    5304
      51     104   274877076664    5304
      51     104           5304    5304
      52     106           5304    5512
      52     106   274877060488    5512
      52     106           5512    5512
      53     108           5512    5724
      53     108   274877044316    5724
      53     108           5724    5724
      54     110           5724    5940
      54     110   274877028148    5940
      54     110           5940    5940
      55     112           5940    6160
      55     112   274877011984    6160
      55     112           6160    6160
      56     114           6160    6384
      56     114   274876995824    6384
      56     114           6384    6384
      57     116           6384    6612
      57     116   274876979668    6612
      57     116           6612    6612
      58     118           6612    6844
      58     118   274876963516    6844
      58     118           6844    6844
      59     120           6844    7080
      59     120   274876947368    7080
      59     120           7080    7080
      60     122           7080    7320
      60     122   274876931224    7320
      60     122           7320    7320
      61     124           7320    7564
      61     124   274876915084    7564
      61     124           7564    7564
      62     126           7564    7812
      62     126   274876898948    7812
      62     126           7812    7812
      63     128           7812    8064
      63     128   274876882816    8064
      63     128           8064    8064
      64     130           8064    8320
      64     130   274876866688    8320
      64     130           8320    8320
      65     132           8320    8580
      65     132   274876850564    8580
      65     132           8580    8580
      66     134           8580    8844
      66     134   274876834444    8844
      66     134           8844    8844
      67     136           8844    9112
      67     136   274876818328    9112
      67     136           9112    9112
      68     138           9112    9384
      68     138   274876802216    9384
      68     138           9384    9384
      69     140           9384    9660
      69     140   274876786108    9660
      69     140           9660    9660
      70     142           9660    9940
      70     142   274876770004    9940
      70     142           9940    9940
      71     144           9940   10224
      71     144   274876753904   10224
      71     144          10224   10224
      72     146          10224   10512
      72     146   274876737808   10512
      72     146          10512   10512
      73     148          10512   10804
      73     148   274876721716   10804
      73     148          10804   10804
      74     150          10804   11100
      74     150   274876705628   11100
      74     150          11100   11100
      75     152          11100   11400
      75     152   274876689544   11400
      75     152          11400   11400
      76     154          11400   11704
      76     154   274876673464   11704
      76     154          11704   11704
      77     156          11704   12012
      77     156   274876657388   12012
      77     156          12012   12012
      78     158          12012   12324
      78     158   274876641316   12324
      78     158          12324   12324
      79     160          12324   12640
      79     160   274876625248   12640
      79     160          12640   12640
      80     162          12640   12960
      80     162   274876609184   12960
      80     162          12960   12960
      81     164          12960   13284
      81     164   274876593124   13284
      81     164          13284   13284
      82     166          13284   13612
      82     166   274876577068   13612
      82     166          13612   13612
      83     168          13612   13944
      83     168   274876561016   13944
      83     168          13944   13944
      84     170          13944   14280
      84     170   274876544968   14280
      84     170          14280   14280
      85     172          14280   14620
      85     172   274876528924   14620
      85     172          14620   14620
      86     174          14620   14964
      86     174   274876512884   14964
      86     174          14964   14964
      87     176          14964   15312
      87     176   274876496848   15312
      87     176          15312   15312
      88     178          15312   15664
      88     178   274876480816   15664
      88     178          15664   15664
      89     180          15664   16020
      89     180   274876464788   16020
      89     180          16020   16020
      90     182          16020   16380
      90     182   274876448764   16380
      90     182          16380   16380
      91     184          16380   16744
      91     184   274876432744   16744
      91     184          16744   16744
      92     186          16744   17112
      92     186   274876416728   17112
      92     186          17112   17112
      93     188          17112   17484
      93     188   274876400716   17484
      93     188          17484   17484
      94     190          17484   17860
      94     190   274876384708   17860
      94     190          17860   17860
      95     192          17860   18240
      95     192   274876368704   18240
      95     192          18240   18240
      96     194          18240   18624
      96     194   274876352704   18624
      96     194          18624   18624
      97     196          18624   19012
      97     196   274876336708   19012
      97     196          19012   19012
      98     198          19012   19404
      98     198   274876320716   19404
      98     198          19404   19404
      99     200          19404   19800
      99     200   274876304728   19800
      99     200          19800   19800
     100     202          19800   20200
     100     202   274876288744   20200
     100     202          20200   20200
     101     204          20200   20604
     101     204   274876272764   20604
     101     204          20604   20604
     102     206          20604   21012
     102     206   274876256788   21012
     102     206          21012   21012
     103     208          21012   21424
     103     208   274876240816   21424
     103     208          21424   21424
     104     210          21424   21840
     104     210   274876224848   21840
     104     210          21840   21840
     105     212          21840   22260
     105     212   274876208884   22260
     105     212          22260   22260
     106     214          22260   22684
     106     214   274876192924   22684
     106     214          22684   22684
     107     216          22684   23112
     107     216   274876176968   23112
     107     216          23112   23112
     108     218          23112   23544
     108     218   274876161016   23544
     108     218          23544   23544
     109     220          23544   23980
     109     220   274876145068   23980
     109     220          23980   23980
     110     222          23980   24420
     110     222   274876129124   24420
     110     222          24420   24420
     111     224          24420   24864
     111     224   274876113184   24864
     111     224          24864   24864
     112     226          24864   25312
     112     226   274876097248   25312
     112     226          25312   25312
     113     228          25312   25764
     113     228   274876081316   25764
     113     228          25764   25764
     114     230          25764   26220
     114     230   274876065388   26220
     114     230          26220   26220
     115     232          26220   26680
     115     232   274876049464   26680
     115     232          26680   26680
     116     234          26680   27144
     116     234   274876033544   27144
     116     234          27144   27144
     117     236          27144   27612
     117     236   274876017628   27612
     117     236          27612   27612
     118     238          27612   28084
     118     238   274876001716   28084
     118     238          28084   28084
     119     240          28084   28560
     119     240   274875985808   28560
     119     240          28560   28560
     120     242          28560   29040
     120     242   274875969904   29040
     120     242          29040   29040
     121     244          29040   29524
     121     244   274875954004   29524
     121     244          29524   29524
     122     246          29524   30012
     122     246   274875938108   30012
     122     246          30012   30012
     123     248          30012   30504
     123     248   274875922216   30504
     123     248          30504   30504
     124     250          30504   31000
     124     250   274875906328   31000
     124     250          31000   31000
     125     252          31000   31500
     125     252   274875890444   31500
     125     252          31500   31500
     126     254          31500   32004
     126     254   274875874564   32004
     126     254          32004   32004
     127     256          32004   32512
     127     256   274875858688   32512
     127     256          32512   32512
     128     258          32512   33024
     128     258   274875842816   33024
     128     258          33024   33024
     129     260          33024   33540
     129     260   274875826948   33540
     129     260          33540   33540
     130     262          33540   34060
     130     262   274875811084   34060
     130     262          34060   34060
     131     264          34060   34584
     131     264   274875795224   34584
     131     264          34584   34584
     132     266          34584   35112
     132     266   274875779368   35112
     132     266          35112   35112
     133     268          35112   35644
     133     268   274875763516   35644
     133     268          35644   35644
     134     270          35644   36180
     134     270   274875747668   36180
     134     270          36180   36180
     135     272          36180   36720
     135     272   274875731824   36720
     135     272          36720   36720
     136     274          36720   37264
     136     274   274875715984   37264
     136     274          37264   37264
     137     276          37264   37812
     137     276   274875700148   37812
     137     276          37812   37812
     138     278          37812   38364
     138     278   274875684316   38364
     138     278          38364   38364
     139     280          38364   38920
     139     280   274875668488   38920
     139     280          38920   38920
     140     282          38920   39480
     140     282   274875652664   39480
     140     282          39480   39480
     141     284          39480   40044
     141     284   274875636844   40044
     141     284          40044   40044
     142     286          40044   40612
     142     286   274875621028   40612
     142     286          40612   40612
     143     288          40612   41184
     143     288   274875605216   41184
     143     288          41184   41184
     144     290          41184   41760
     144     290   274875589408   41760
     144     290          41760   41760
     145     292          41760   42340
     145     292   274875573604   42340
     145     292          42340   42340
     146     294          42340   42924
     146     294   274875557804   42924
     146     294          42924   42924
     147     296          42924   43512
     147     296   274875542008   43512
     147     296          43512   43512
     148     298          43512   44104
     148     298   274875526216   44104
     148     298          44104   44104
     149     300          44104   44700
     149     300   274875510428   44700
     149     300          44700   44700
     150     302          44700   45300
     150     302   274875494644   45300
     150     302          45300   45300
     151     304          45300   45904
     151     304   274875478864   45904
     151     304          45904   45904
     152     306          45904   46512
     152     306   274875463088   46512
     152     306          46512   46512
     153     308          46512   47124
     153     308   274875447316   47124
     153     308          47124   47124
     154     310          47124   47740
     154     310   274875431548   47740
     154     310          47740   47740
     155     312          47740   48360
     155     312   274875415784   48360
     155     312          48360   48360
     156     314          48360   48984
     156     314   274875400024   48984
     156     314          48984   48984
     157     316          48984   49612
     157     316   274875384268   49612
     157     316          49612   49612
     158     318          49612   50244
     158     318   274875368516   50244
     158     318          50244   50244
     159     320          50244   50880
     159     320   274875352768   50880
     159     320          50880   50880
     160     322          50880   51520
     160     322   274875337024   51520
     160     322          51520   51520
     161     324          51520   52164
     161     324   274875321284   52164
     161     324          52164   52164
     162     326          52164   52812
     162     326   274875305548   52812
     162     326          52812   52812
     163     328          52812   53464
     163     328   274875289816   53464
     163     328          53464   53464
     164     330          53464   54120
     164     330   274875274088   54120
     164     330          54120   54120
     165     332          54120   54780
     165     332   274875258364   54780
     165     332          54780   54780
     166     334          54780   55444
     166     334   274875242644   55444
     166     334          55444   55444
     167     336          55444   56112
     167     336   274875226928   56112
     167     336          56112   56112
     168     338          56112   56784
     168     338   274875211216   56784
     168     338          56784   56784
     169     340          56784   57460
     169     340   274875195508   57460
     169     340          57460   57460
     170     342          57460   58140
     170     342   274875179804   58140
     170     342          58140   58140
     171     344          58140   58824
     171     344   274875164104   58824
     171     344          58824   58824
     172     346          58824   59512
     172     346   274875148408   59512
     172     346          59512   59512
     173     348          59512   60204
     173     348   274875132716   60204
     173     348          60204   60204
     174     350          60204   60900
     174     350   274875117028   60900
     174     350          60900   60900
     175     352          60900   61600
     175     352   274875101344   61600
     175     352          61600   61600
     176     354          61600   62304
     176     354   274875085664   62304
     176     354          62304   62304
     177     356          62304   63012
     177     356   274875069988   63012
     177     356          63012   63012
     178     358          63012   63724
     178     358   274875054316   63724
     178     358          63724   63724
     179     360          63724   64440
     179     360   274875038648   64440
     179     360          64440   64440
     180     362          64440   65160
     180     362   274875022984   65160
     180     362          65160   65160
     181     364          65160   65884
     181     364   274875007324   65884
     181     364          65884   65884
     182     366          65884   66612
     182     366   274874991668   66612
     182     366          66612   66612
     183     368          66612   67344
     183     368   274874976016   67344
     183     368          67344   67344
     184     370          67344   68080
     184     370   274874960368   68080
     184     370          68080   68080
     185     372          68080   68820
     185     372   274874944724   68820
     185     372          68820   68820
     186     374          68820   69564
     186     374   274874929084   69564
     186     374          69564   69564
     187     376          69564   70312
     187     376   274874913448   70312
     187     376          70312   70312
     188     378          70312   71064
     188     378   274874897816   71064
     188     378          71064   71064
     189     380          71064   71820
     189     380   274874882188   71820
     189     380          71820   71820
     190     382          71820   72580
     190     382   274874866564   72580
     190     382          72580   72580
     191     384          72580   73344
     191     384   274874850944   73344
     191     384          73344   73344
     192     386          73344   74112
     192     386   274874835328   74112
     192     386          74112   74112
     193     388          74112   74884
     193     388   274874819716   74884
     193     388          74884   74884
     194     390          74884   75660
     194     390   274874804108   75660
     194     390          75660   75660
     195     392          75660   76440
     195     392   274874788504   76440
     195     392          76440   76440
     196     394          76440   77224
     196     394   274874772904   77224
     196     394          77224   77224
     197     396          77224   78012
     197     396   274874757308   78012
     197     396          78012   78012
     198     398          78012   78804
     198     398   274874741716   78804
     198     398          78804   78804
     199     400          78804   79600
     199     400   274874726128   79600
     199     400          79600   79600
     200     402          79600   80400
     200     402   274874710544   80400
     200     402          80400   80400
     201     404          80400   81204
     201     404   274874694964   81204
     201     404          81204   81204
     202     406          81204   82012
     202     406   274874679388   82012
     202     406          82012   82012
     203     408          82012   82824
     203     408   274874663816   82824
     203     408          82824   82824
     204     410          82824   83640
     204     410   274874648248   83640
     204     410          83640   83640
     205     412          83640   84460
     205     412   274874632684   84460
     205     412          84460   84460
     206     414          84460   85284
     206     414   274874617124   85284
     206     414          85284   85284
     207     416          85284   86112
     207     416   274874601568   86112
     207     416          86112   86112
     208     418          86112   86944
     208     418   274874586016   86944
     208     418          86944   86944
     209     420          86944   87780
     209     420   274874570468   87780
     209     420          87780   87780
     210     422          87780   88620
     210     422   274874554924   88620
     210     422          88620   88620
     211     424          88620   89464
     211     424   274874539384   89464
     211     424          89464   89464
     212     426          89464   90312
     212     426   274874523848   90312
     212     426          90312   90312
     213     428          90312   91164
     213     428   274874508316   91164
     213     428          91164   91164
     214     430          91164   92020
     214     430   274874492788   92020
     214     430          92020   92020
     215     432          92020   92880
     215     432   274874477264   92880
     215     432          92880   92880
     216     434          92880   93744
     216     434   274874461744   93744
     216     434          93744   93744
     217     436          93744   94612
     217     436   274874446228   94612
     217     436          94612   94612
     218     438          94612   95484
     218     438   274874430716   95484
     218     438          95484   95484
     219     440          95484   96360
     219     440   274874415208   96360
     219     440          96360   96360
     220     442          96360   97240
     220     442   274874399704   97240
     220     442          97240   97240
     221     444          97240   98124
     221     444   274874384204   98124
     221     444          98124   98124
     222     446          98124   99012
     222     446   274874368708   99012
     222     446          99012   99012
     223     448          99012   99904
     223     448   274874353216   99904
     223     448          99904   99904
     224     450          99904  100800
     224     450   274874337728  100800
     224     450         100800  100800
     225     452         100800  101700
     225     452   274874322244  101700
     225     452         101700  101700
     226     454         101700  102604
     226     454   274874306764  102604
     226     454         102604  102604
     227     456         102604  103512
     227     456   274874291288  103512
     227     456         103512  103512
     228     458         103512  104424
     228     458   274874275816  104424
     228     458         104424  104424
     229     460         104424  105340
     229     460   274874260348  105340
     229     460         105340  105340
     230     462         105340  106260
     230     462   274874244884  106260
     230     462         106260  106260
     231     464         106260  107184
     231     464   274874229424  107184
     231     464         107184  107184
     232     466         107184  108112
     232     466   274874213968  108112
     232     466         108112  108112
     233     468         108112  109044
     233     468   274874198516  109044
     233     468         109044  109044
     234     470         109044  109980
     234     470   274874183068  109980
     234     470         109980  109980
     235     472         109980  110920
     235     472   274874167624  110920
     235     472         110920  110920
     236     474         110920  111864
     236     474   274874152184  111864
     236     474         111864  111864
     237     476         111864  112812
     237     476   274874136748  112812
     237     476         112812  112812
     238     478         112812  113764
     238     478   274874121316  113764
     238     478         113764  113764
     239     480         113764  114720
     239     480   274874105888  114720
     239     480         114720  114720
     240     482         114720  115680
     240     482   274874090464  115680
     240     482         115680  115680
     241     484         115680  116644
     241     484   274874075044  116644
     241     484         116644  116644
     242     486         116644  117612
     242     486   274874059628  117612
     242     486         117612  117612
     243     488         117612  118584
     243     488   274874044216  118584
     243     488         118584  118584
     244     490         118584  119560
     244     490   274874028808  119560
     244     490         119560  119560
     245     492         119560  120540
     245     492   274874013404  120540
     245     492         120540  120540
     246     494         120540  121524
     246     494   274873998004  121524
     246     494         121524  121524
     247     496         121524  122512
     247     496   274873982608  122512
     247     496         122512  122512
     248     498         122512  123504
     248     498   274873967216  123504
     248     498         123504  123504
     249     500         123504  124500
     249     500   274873951828  124500
     249     500         124500  124500
     250     502         124500  125500
     250     502   274873936444  125500
     250     502         125500  125500
     251     504         125500  126504
     251     504   274873921064  126504
     251     504         126504  126504
     252     506         126504  127512
     252     506   274873905688  127512
     252     506         127512  127512
     253     508         127512  128524
     253     508   274873890316  128524
     253     508         128524  128524
     254     510         128524  129540
     254     510   274873874948  129540
     254     510         129540  129540
     255     512         129540  130560
     255     512   274873859584  130560
     255     512         130560  130560
     256     514         130560  131584
     256     514   274873844224  131584
     256     514         131584  131584
     257     516         131584  132612
     257     516   274873828868  132612
     257     516         132612  132612
     258     518         132612  133644
     258     518   274873813516  133644
     258     518         133644  133644
     259     520         133644  134680
     259     520   274873798168  134680
     259     520         134680  134680
     260     522         134680  135720
     260     522   274873782824  135720
     260     522         135720  135720
     261     524         135720  136764
     261     524   274873767484  136764
     261     524         136764  136764
     262     526         136764  137812
     262     526   274873752148  137812
     262     526         137812  137812
     263     528         137812  138864
     263     528   274873736816  138864
     263     528         138864  138864
     264     530         138864  139920
     264     530   274873721488  139920
     264     530         139920  139920
     265     532         139920  140980
     265     532   274873706164  140980
     265     532         140980  140980
     266     534         140980  142044
     266     534   274873690844  142044
     266     534         142044  142044
     267     536         142044  143112
     267     536   274873675528  143112
     267     536         143112  143112
     268     538         143112  144184
     268     538   274873660216  144184
     268     538         144184  144184
     269     540         144184  145260
     269     540   274873644908  145260
     269     540         145260  145260
     270     542         145260  146340
     270     542   274873629604  146340
     270     542         146340  146340
     271     544         146340  147424
     271     544   274873614304  147424
     271     544         147424  147424
     272     546         147424  148512
     272     546   274873599008  148512
     272     546         148512  148512
     273     548         148512  149604
     273     548   274873583716  149604
     273     548         149604  149604
     274     550         149604  150700
     274     550   274873568428  150700
     274     550         150700  150700
     275     552         150700  151800
     275     552   274873553144  151800
     275     552         151800  151800
     276     554         151800  152904
     276     554   274873537864  152904
     276     554         152904  152904
     277     556         152904  154012
     277     556   274873522588  154012
     277     556         154012  154012
     278     558         154012  155124
     278     558   274873507316  155124
     278     558         155124  155124
     279     560         155124  156240
     279     560   274873492048  156240
     279     560         156240  156240
     280     562         156240  157360
     280     562   274873476784  157360
     280     562         157360  157360
     281     564         157360  158484
     281     564   274873461524  158484
     281     564         158484  158484
     282     566         158484  159612
     282     566   274873446268  159612
     282     566         159612  159612
     283     568         159612  160744
     283     568   274873431016  160744
     283     568         160744  160744
     284     570         160744  161880
     284     570   274873415768  161880
     284     570         161880  161880
     285     572         161880  163020
     285     572   274873400524  163020
     285     572         163020  163020
     286     574         163020  164164
     286     574   274873385284  164164
     286     574         164164  164164
     287     576         164164  165312
     287     576   274873370048  165312
     287     576         165312  165312
     288     578         165312  166464
     288     578   274873354816  166464
     288     578         166464  166464
     289     580         166464  167620
     289     580   274873339588  167620
     289     580         167620  167620
     290     582         167620  168780
     290     582   274873324364  168780
     290     582         168780  168780
     291     584         168780  169944
     291     584   274873309144  169944
     291     584         169944  169944
     292     586         169944  171112
     292     586   274873293928  171112
     292     586         171112  171112
     293     588         171112  172284
     293     588   274873278716  172284
     293     588         172284  172284
     294     590         172284  173460
     294     590   274873263508  173460
     294     590         173460  173460
     295     592         173460  174640
     295     592   274873248304  174640
     295     592         174640  174640
     296     594         174640  175824
     296     594   274873233104  175824
     296     594         175824  175824
     297     596         175824  177012
     297     596   274873217908  177012
     297     596         177012  177012
     298     598         177012  178204
     298     598   274873202716  178204
     298     598         178204  178204
     299     600         178204  179400
     299     600   274873187528  179400
     299     600         179400  179400
     300     602         179400  180600
     300     602   274873172344  180600
     300     602         180600  180600
     301     604         180600  181804
     301     604   274873157164  181804
     301     604         181804  181804
     302     606         181804  183012
     302     606   274873141988  183012
     302     606         183012  183012
     303     608         183012  184224
     303     608   274873126816  184224
     303     608         184224  184224
     304     610         184224  185440
     304     610   274873111648  185440
     304     610         185440  185440
     305     612         185440  186660
     305     612   274873096484  186660
     305     612         186660  186660
     306     614         186660  187884
     306     614   274873081324  187884
     306     614         187884  187884
     307     616         187884  189112
     307     616   274873066168  189112
     307     616         189112  189112
     308     618         189112  190344
     308     618   274873051016  190344
     308     618         190344  190344
     309     620         190344  191580
     309     620   274873035868  191580
     309     620         191580  191580
     310     622         191580  192820
     310     622   274873020724  192820
     310     622         192820  192820
     311     624         192820  194064
     311     624   274873005584  194064
     311     624         194064  194064
     312     626         194064  195312
     312     626   274872990448  195312
     312     626         195312  195312
     313     628         195312  196564
     313     628   274872975316  196564
     313     628         196564  196564
     314     630         196564  197820
     314     630   274872960188  197820
     314     630         197820  197820
     315     632         197820  199080
     315     632   274872945064  199080
     315     632         199080  199080
     316     634         199080  200344
     316     634   274872929944  200344
     316     634         200344  200344
     317     636         200344  201612
     317     636   274872914828  201612
     317     636         201612  201612
     318     638         201612  202884
     318     638   274872899716  202884
     318     638         202884  202884
     319     640         202884  204160
     319     640   274872884608  204160
     319     640         204160  204160
     320     642         204160  205440
     320     642   274872869504  205440
     320     642         205440  205440
     321     644         205440  206724
     321     644   274872854404  206724
     321     644         206724  206724
     322     646         206724  208012
     322     646   274872839308  208012
     322     646         208012  208012
     323     648         208012  209304
     323     648   274872824216  209304
     323     648         209304  209304
     324     650         209304  210600
     324     650   274872809128  210600
     324     650         210600  210600
     325     652         210600  211900
     325     652   274872794044  211900
     325     652         211900  211900
     326     654         211900  213204
     326     654   274872778964  213204
     326     654         213204  213204
     327     656         213204  214512
     327     656   274872763888  214512
     327     656         214512  214512
     328     658         214512  215824
     328     658   274872748816  215824
     328     658         215824  215824
     329     660         215824  217140
     329     660   274872733748  217140
     329     660         217140  217140
     330     662         217140  218460
     330     662   274872718684  218460
     330     662         218460  218460
     331     664         218460  219784
     331     664   274872703624  219784
     331     664         219784  219784
     332     666         219784  221112
     332     666   274872688568  221112
     332     666         221112  221112
     333     668         221112  222444
     333     668   274872673516  222444
     333     668         222444  222444
     334     670         222444  223780
     334     670   274872658468  223780
     334     670         223780  223780
     335     672         223780  225120
     335     672   274872643424  225120
     335     672         225120  225120
     336     674         225120  226464
     336     674   274872628384  226464
     336     674         226464  226464
     337     676         226464  227812
     337     676   274872613348  227812
     337     676         227812  227812
     338     678         227812  229164
     338     678   274872598316  229164
     338     678         229164  229164
     339     680         229164  230520
     339     680   274872583288  230520
     339     680         230520  230520
     340     682         230520  231880
     340     682   274872568264  231880
     340     682         231880  231880
     341     684         231880  233244
     341     684   274872553244  233244
     341     684         233244  233244
     342     686         233244  234612
     342     686   274872538228  234612
     342     686         234612  234612
     343     688         234612  235984
     343     688   274872523216  235984
     343     688         235984  235984
     344     690         235984  237360
     344     690   274872508208  237360
     344     690         237360  237360
     345     692         237360  238740
     345     692   274872493204  238740
     345     692         238740  238740
     346     694         238740  240124
     346     694   274872478204  240124
     346     694         240124  240124
     347     696         240124  241512
     347     696   274872463208  241512
     347     696         241512  241512
     348     698         241512  242904
     348     698   274872448216  242904
     348     698         242904  242904
     349     700         242904  244300
     349     700   274872433228  244300
     349     700         244300  244300
     350     702         244300  245700
     350     702   274872418244  245700
     350     702         245700  245700
     351     704         245700  247104
     351     704   274872403264  247104
     351     704         247104  247104
     352     706         247104  248512
     352     706   274872388288  248512
     352     706         248512  248512
     353     708         248512  249924
     353     708   274872373316  249924
     353     708         249924  249924
     354     710         249924  251340
     354     710   274872358348  251340
     354     710         251340  251340
     355     712         251340  252760
     355     712   274872343384  252760
     355     712         252760  252760
     356     714         252760  254184
     356     714   274872328424  254184
     356     714         254184  254184
     357     716         254184  255612
     357     716   274872313468  255612
     357     716         255612  255612
     358     718         255612  257044
     358     718   274872298516  257044
     358     718         257044  257044
     359     720         257044  258480
     359     720   274872283568  258480
     359     720         258480  258480
     360     722         258480  259920
     360     722   274872268624  259920
     360     722         259920  259920
     361     724         259920  261364
     361     724   274872253684  261364
     361     724         261364  261364
     362     726         261364  262812
     362     726   274872238748  262812
     362     726         262812  262812
     363     728         262812  264264
     363     728   274872223816  264264
     363     728         264264  264264
     364     730         264264  265720
     364     730   274872208888  265720
     364     730         265720  265720
     365     732         265720  267180
     365     732   274872193964  267180
     365     732         267180  267180
     366     734         267180  268644
     366     734   274872179044  268644
     366     734         268644  268644
     367     736         268644  270112
     367     736   274872164128  270112
     367     736         270112  270112
     368     738         270112  271584
     368     738   274872149216  271584
     368     738         271584  271584
     369     740         271584  273060
     369     740   274872134308  273060
     369     740         273060  273060
     370     742         273060  274540
     370     742   274872119404  274540
     370     742         274540  274540
     371     744         274540  276024
     371     744   274872104504  276024
     371     744         276024  276024
     372     746         276024  277512
     372     746   274872089608  277512
     372     746         277512  277512
     373     748         277512  279004
     373     748   274872074716  279004
     373     748         279004  279004
     374     750         279004  280500
     374     750   274872059828  280500
     374     750         280500  280500
     375     752         280500  282000
     375     752   274872044944  282000
     375     752         282000  282000
     376     754         282000  283504
     376     754   274872030064  283504
     376     754         283504  283504
     377     756         283504  285012
     377     756   274872015188  285012
     377     756         285012  285012
     378     758         285012  286524
     378     758   274872000316  286524
     378     758         286524  286524
     379     760         286524  288040
     379     760   274871985448  288040
     379     760         288040  288040
     380     762         288040  289560
     380     762   274871970584  289560
     380     762         289560  289560
     381     764         289560  291084
     381     764   274871955724  291084
     381     764         291084  291084
     382     766         291084  292612
     382     766   274871940868  292612
     382     766         292612  292612
     383     768         292612  294144
     383     768   274871926016  294144
     383     768         294144  294144
     384     770         294144  295680
     384     770   274871911168  295680
     384     770         295680  295680
     385     772         295680  297220
     385     772   274871896324  297220
     385     772         297220  297220
     386     774         297220  298764
     386     774   274871881484  298764
     386     774         298764  298764
     387     776         298764  300312
     387     776   274871866648  300312
     387     776         300312  300312
     388     778         300312  301864
     388     778   274871851816  301864
     388     778         301864  301864
     389     780         301864  303420
     389     780   274871836988  303420
     389     780         303420  303420
     390     782         303420  304980
     390     782   274871822164  304980
     390     782         304980  304980
     391     784         304980  306544
     391     784   274871807344  306544
     391     784         306544  306544
     392     786         306544  308112
     392     786   274871792528  308112
     392     786         308112  308112
     393     788         308112  309684
     393     788   274871777716  309684
     393     788         309684  309684
     394     790         309684  311260
     394     790   274871762908  311260
     394     790         311260  311260
     395     792         311260  312840
     395     792   274871748104  312840
     395     792         312840  312840
     396     794         312840  314424
     396     794   274871733304  314424
     396     794         314424  314424
     397     796         314424  316012
     397     796   274871718508  316012
     397     796         316012  316012
     398     798         316012  317604
     398     798   274871703716  317604
     398     798         317604  317604
     399     800         317604  319200
     399     800   274871688928  319200
     399     800         319200  319200
     400     802         319200  320800
     400     802   274871674144  320800
     400     802         320800  320800
     401     804         320800  322404
     401     804   274871659364  322404
     401     804         322404  322404
     402     806         322404  324012
     402     806   274871644588  324012
     402     806         324012  324012
     403     808         324012  325624
     403     808   274871629816  325624
     403     808         325624  325624
     404     810         325624  327240
     404     810   274871615048  327240
     404     810         327240  327240
     405     812         327240  328860
     405     812   274871600284  328860
     405     812         328860  328860
     406     814         328860  330484
     406     814   274871585524  330484
     406     814         330484  330484
